Assignment 1: Data and Descriptive, MSB104-gruppe 6 2025
…
Gjennomsnittlig Gini per land per år

# Gjennomsnittlig Gini
gini_gjennomsnittlig <- gini %>%
  filter(!is.na(Gini_weighted)) %>%
  group_by(country, TIME_PERIOD) %>%
  summarise(mean_gini = mean(Gini_weighted), .groups = "drop") %>%
  mutate(land_full = recode(country,
                            "BE" = "Belgia", "BG" = "Bulgaria",
                            "NL" = "Nederland", "NO" = "Norge"))
gini_gjennomsnittlig

# A tibble: 77 × 4
   country TIME_PERIOD mean_gini land_full
   <chr>         <dbl>     <dbl> <chr>    
 1 BE             2003    0.0757 Belgia   
 2 BE             2004    0.0794 Belgia   
 3 BE             2005    0.0790 Belgia   
 4 BE             2006    0.0797 Belgia   
 5 BE             2007    0.0798 Belgia   
 6 BE             2008    0.0800 Belgia   
 7 BE             2009    0.0712 Belgia   
 8 BE             2010    0.0736 Belgia   
 9 BE             2011    0.0720 Belgia   
10 BE             2012    0.0784 Belgia   
# ℹ 67 more rows
…
Tabellene viser gjennomsnittlig Gini og de høyeste og laveste verdiene for gjennomsnittlig Gini per land og tilhørende år i perioden 2000–2023. Bulgaria har hatt den høyeste ulikheten blant landene, med maksimum 0.151 i 2022 og minimum 0.093 i 2002. Belgia viser små endringer over tid, med maksimum 0.082 i 2016 og minimum 0.071 i 2009. Nederland har hatt lave verdier, mellom 0.031 i 2010 og 0.045 i 2006, mens Norge har de laveste forskjellene, fra 0.021 i 2017 til 0.045 i 2020. Samlet viser resultatene at ulikheten har vært lav og stabil i de tre av fire landene, men med en tydelig økende tendens i Bulgaria de siste årene.

Median Gini per land per år

# Median Gini per land per år
gini_median <- gini %>%
  filter(!is.na(Gini_weighted)) %>%
  group_by(country, TIME_PERIOD) %>%
  summarise(median_gini = median(Gini_weighted), .groups = "drop") %>%
  mutate(land_full = recode(country,
                            "BE" = "Belgia", "BG" = "Bulgaria",
                            "NL" = "Nederland", "NO" = "Norge"))
gini_median

# A tibble: 77 × 4
   country TIME_PERIOD median_gini land_full
   <chr>         <dbl>       <dbl> <chr>    
 1 BE             2003      0.0782 Belgia   
 2 BE             2004      0.0812 Belgia   
 3 BE             2005      0.0763 Belgia   
 4 BE             2006      0.0731 Belgia   
 5 BE             2007      0.0755 Belgia   
 6 BE             2008      0.0798 Belgia   
 7 BE             2009      0.0661 Belgia   
 8 BE             2010      0.0650 Belgia   
 9 BE             2011      0.0657 Belgia   
10 BE             2012      0.0806 Belgia   
# ℹ 67 more rows
…
