Assignment 2, MSB104-gruppe 6 2025
…
    TIME_PERIOD %in% c(2016, 2017),
    unit_gdp == "MIO_EUR",
    unit_pop == "NR",
    sex == "T", age == "TOTAL"
  ) %>%
  group_by(NUTS2, TIME_PERIOD) %>%
  summarise(
    values_gdp = sum(values_gdp, na.rm = TRUE),   # Beholder opprinnelig kolonnenavn
    values_pop = sum(values_pop, na.rm = TRUE),   # Beholder opprinnelig kolonnenavn
    .groups = "drop"
  ) %>% # Summerer BNP og befolkning for hver NUTS2-region og år
  mutate(GDPC = (values_gdp * 1e6) / values_pop)   # BNP per innbygger (i euro)
gdp_pop

# A tibble: 66 × 5
   NUTS2 TIME_PERIOD values_gdp values_pop   GDPC
   <chr>       <dbl>      <dbl>      <dbl>  <dbl>
 1 BE10         2016     80092.    1201285 66672.
 2 BE10         2017     82258.    1199095 68600.
 3 BE21         2016     82295.    1828927 44996.
 4 BE21         2017     85078.    1838863 46266.
 5 BE22         2016     26782.     866970 30891.
 6 BE22         2017     27865.     869664 32042.
 7 BE23         2016     52027.    1489084 34939.
 8 BE23         2017     54304.    1498483 36240.
 9 BE24         2016     46550.    1122600 41467.
10 BE24         2017     48159.    1130644 42594.
# ℹ 56 more rows

# beregner endringsprosenten
gdp_pop_change_2017 <- gdp_pop %>%
  arrange(NUTS2, TIME_PERIOD) %>%        # Sorterer etter region og år
  group_by(NUTS2) %>%                    # Beregner endring per region
  mutate(
    change_GDPC_pct = (GDPC / lag(GDPC) - 1) * 100   # Prosentvis endring (%)  
  ) %>%
  filter(TIME_PERIOD == 2017) %>%        # Beholder kun endringen for 2017
  ungroup()
gdp_pop_change_2017

# A tibble: 33 × 6
   NUTS2 TIME_PERIOD values_gdp values_pop   GDPC change_GDPC_pct
   <chr>       <dbl>      <dbl>      <dbl>  <dbl>           <dbl>
 1 BE10         2017     82258.    1199095 68600.            2.89
 2 BE21         2017     85078.    1838863 46266.            2.82
 3 BE22         2017     27865.     869664 32042.            3.73
 4 BE23         2017     54304.    1498483 36240.            3.72
 5 BE24         2017     48159.    1130644 42594.            2.72
 6 BE25         2017     45242.    1188407 38069.            3.10
 7 BE31         2017     18176.     399735 45470.            4.37
 8 BE32         2017     33010.    1342053 24596.            2.92
 9 BE33         2017     30800.    1106039 27847.            3.48
10 BE34         2017      6864.     284617 24118.            3.41
# ℹ 23 more rows

# Velger Gini-vektene for 2017
gini_2017 <- gini %>%
  mutate(TIME_PERIOD = as.integer(TIME_PERIOD)) %>%  # Konverterer kolonnen TIME_PERIOD til heltallstype
  filter(TIME_PERIOD == 2017) 
gini_2017

# A tibble: 33 × 5
   country NUTS2 TIME_PERIOD n_nuts3 Gini_weighted
   <chr>   <chr>       <int>   <dbl>         <dbl>
 1 BE      BE10         2017       1       NA     
 2 BE      BE21         2017       3        0.0266
 3 BE      BE22         2017       3        0.112 
 4 BE      BE23         2017       6        0.139 
 5 BE      BE24         2017       2        0.0626
 6 BE      BE25         2017       8        0.0659
 7 BE      BE31         2017       1       NA     
 8 BE      BE32         2017       7        0.0795
 9 BE      BE33         2017       5        0.0675
10 BE      BE34         2017       5        0.0883
# ℹ 23 more rows

# Slå sammen datasettet og kall det data_2017
data_2017_a <- gdp_pop_change_2017 %>%
  left_join(gini_2017, by = "NUTS2") %>% 
  filter(!is.na(Gini_weighted))
data_2017_a

# A tibble: 23 × 10
   NUTS2 TIME_PERIOD.x values_gdp values_pop   GDPC change_GDPC_pct country
   <chr>         <dbl>      <dbl>      <dbl>  <dbl>           <dbl> <chr>  
 1 BE21           2017     85078.    1838863 46266.            2.82 BE     
 2 BE22           2017     27865.     869664 32042.            3.73 BE     
 3 BE23           2017     54304.    1498483 36240.            3.72 BE     
 4 BE24           2017     48159.    1130644 42594.            2.72 BE     
 5 BE25           2017     45242.    1188407 38069.            3.10 BE     
 6 BE32           2017     33010.    1342053 24596.            2.92 BE     
 7 BE33           2017     30800.    1106039 27847.            3.48 BE     
 8 BE34           2017      6864.     284617 24118.            3.41 BE     
 9 BE35           2017     13103.     494127 26517.            2.44 BE     
10 BG31           2017      3540.     753059  4701.           12.1  BG     
# ℹ 13 more rows
# ℹ 3 more variables: TIME_PERIOD.y <int>, n_nuts3 <dbl>, Gini_weighted <dbl>
…
utdanning_2017_høynivå <- utdanning %>%
  filter(
    TIME_PERIOD == 2017,
    isced11 == "ED5-8",    # Utdanningsnivå: høyere utdanning (nivå 5–8)
    sex == "T",            # Begge kjønn
    age == "Y25-64",       # Aldersgruppen 25–64 år
    unit == "PC",          # Enhet: prosent av befolkningen
    nchar(geo) == 4,       # Beholder kun NUTS2-nivå (fire tegn)
    substr(geo, 1, 2) %in% c("BE","NL","BG","NO")  
  ) %>%
  select(sex, unit, geo, values)
utdanning_2017_høynivå

# A tibble: 35 × 4
   sex   unit  geo   values
   <chr> <chr> <chr>  <dbl>
 1 T     PC    BE10    46.6
 2 T     PC    BE21    38.2
 3 T     PC    BE22    35.4
 4 T     PC    BE23    42.6
 5 T     PC    BE24    50.7
 6 T     PC    BE25    37.4
 7 T     PC    BE31    57.1
 8 T     PC    BE32    31.1
 9 T     PC    BE33    35.6
10 T     PC    BE34    37.1
# ℹ 25 more rows
…
# Laster ned transportdatasettet fra Eurostat
transport <- get_eurostat("tran_r_net", time_format = "num")

transport_2017 <- transport %>%
  filter(
    TIME_PERIOD == 2017,           
    tra_infr == "MWAY",         # Variabel: motorveinett (motorways)
    unit == "KM",             # Enhet: kilometer (total lengde)
    nchar(geo) == 4,               
    substr(geo, 1, 2) %in% c("BE","BG","NL","NO")  
  ) %>%
  select(tra_infr, unit, geo, values)
transport_2017

# A tibble: 40 × 4
   tra_infr unit  geo   values
   <chr>    <chr> <chr>  <dbl>
 1 MWAY     KM    BE10      11
 2 MWAY     KM    BE21     220
 3 MWAY     KM    BE22     106
 4 MWAY     KM    BE23     196
 5 MWAY     KM    BE24     175
 6 MWAY     KM    BE25     187
 7 MWAY     KM    BE31      63
 8 MWAY     KM    BE32     284
 9 MWAY     KM    BE33     266
10 MWAY     KM    BE34     154
# ℹ 30 more rows
…
# Laster ned arealdata fra Eurostat
area <- get_eurostat("reg_area3", time_format = "num")
area_2017 <- area %>%
  filter(TIME_PERIOD == 2017,
         unit == "KM2",
         nchar(geo) == 4,
         substr(geo,1,2) %in% c("BE","BG","NL","NO")) %>%
  group_by(geo) %>%
  summarise(area_km2 = max(values, na.rm = TRUE), .groups = "drop") %>% # Tar største verdi hvis duplikater finnes
  mutate(area_km2 = ifelse(is.infinite(area_km2), NA, area_km2)) %>%  # Erstatter -Inf med NA
  filter(!is.na(area_km2))   # Fjerner manglende verdier
area_2017

# A tibble: 36 × 2
   geo   area_km2
   <chr>    <dbl>
 1 BE10       162
 2 BE21      2876
 3 BE22      2428
 4 BE23      3008
 5 BE24      2119
 6 BE25      3167
 7 BE31      1097
 8 BE32      3814
 9 BE33      3858
10 BE34      4460
# ℹ 26 more rows

# Beregner veitetthet = motorveilengde / areal * 1000 (for å få km per 1000 km²)
transport_2017tetthet <- transport_2017 %>%
  left_join(area_2017, by = "geo") %>%
  mutate(tetthet = values / area_km2 * 1000) %>%  # Veilengde ÷ areal × 1000
  select(geo, tetthet)%>%
  filter(is.finite(tetthet)) # Fjerner uendelige eller manglende verdier
transport_2017tetthet

# A tibble: 36 × 2
   geo   tetthet
   <chr>   <dbl>
 1 BE10     67.9
 2 BE21     76.5
 3 BE22     43.7
 4 BE23     65.2
 5 BE24     82.6
 6 BE25     59.0
 7 BE31     57.4
 8 BE32     74.5
 9 BE33     68.9
10 BE34     34.5
# ℹ 26 more rows
…
    nchar(geo) == 4,                
    substr(geo, 1, 2) %in% c("BE", "BG", "NL", "NO")  
  ) %>%
  group_by(geo) %>%    # Grupperer etter region
  summarise(
    pop_over65 = sum(values[age %in% c("Y65-69","Y70-74","Y75-79","Y80-84","Y85-89","Y_GE85")], na.rm = TRUE),
    pop_total = sum(values[age == "TOTAL"], na.rm = TRUE)
  ) %>%
  # Beregner andelen av befolkningen som 65 år og eldre (i prosent)
  mutate(andelen_over65 = pop_over65 / pop_total * 100) %>%
  ungroup() %>%
  filter(is.finite(andelen_over65)) #Fjerner manglende eller uendelige verdier
population_2017_over65

# A tibble: 39 × 4
   geo   pop_over65 pop_total andelen_over65
   <chr>      <dbl>     <dbl>          <dbl>
 1 BE10      173045   1199095           14.4
 2 BE21      381090   1838863           20.7
 3 BE22      182124    869664           20.9
 4 BE23      318912   1498483           21.3
 5 BE24      235760   1130644           20.9
 6 BE25      296196   1188407           24.9
 7 BE31       79882    399735           20.0
 8 BE32      266344   1342053           19.8
 9 BE33      220696   1106039           20.0
10 BE34       51433    284617           18.1
# ℹ 29 more rows
…
